…
and now to get mean rho:

```
Rscript analysis/recombination-ldhelmet/mean_rho.R \
-d data/recombination-ldhelmet/recombination-estimates/ \
-o data/recombination-ldhelmet/mean_rho.txt
```

wait - this increased the recombination estimates for the non-gametolog regions??

it seems a lot of this (at least in the minus) is being driven by a few regions:

```R
# A tibble: 5,236 x 8
   left_snp right_snp     mean   p0.025   p0.500   p0.975 length weighted_rho
      <int>     <int>    <dbl>    <dbl>    <dbl>    <dbl>  <int>        <dbl>
 1    51880     56974 2.158200 0.374070 1.962800 5.036900   5094  10993.87080
 2   204689    204843 2.947400 0.433570 2.753100 6.272700    154    453.89960
 3    51767     51880 2.158200 0.374070 1.962800 5.036900    113    243.87660
 4   105936    106081 1.667400 0.395820 1.502500 4.272500    145    241.77300
 5    57046     57154 2.158200 0.374070 1.962800 5.036900    108    233.08560
 6    51643     51731 2.158200 0.374070 1.962800 5.036900     88    189.92160
 7    57459     57535 2.158200 0.374070 1.962800 5.036900     76    164.02320
 8    57280     57341 2.158200 0.374070 1.962800 5.036900     61    131.65020
 9    57237     57280 2.158200 0.374070 1.962800 5.036900     43     92.80260
10    27520     31230 0.023593 0.013215 0.022049 0.042326   3710     87.53003
# ... with 5,226 more rows
```
…
## 25/12/2018

merry christmas!

it seems we have two regions inflating the crap out of
the non-gametolog regions.

```R
d_ref %>%
+ filter(is_gametolog == 0) %>%
+ group_by(rho) %>%
+ tally() %>%
+ arrange(desc(rho))
# A tibble: 103 x 2
        rho     n
      <dbl> <int>
 1 0.099478  6753
 2 0.077931  2979
 3 0.059614   270
 4 0.054090    95
 5 0.042391     5
 6 0.040939     7
 7 0.031879    18
 8 0.026011    20
 9 0.024268    18
10 0.020789   224
# ... with 93 more rows
…
but the same two regions again:

```R
> d %>%
+ group_by(is_gametolog) %>%
+ summarise(mean_rho = mean(rho, na.rm = TRUE))
# A tibble: 2 x 2
  is_gametolog    mean_rho
         <int>       <dbl>
1            0 0.008301928
2            1 0.002693016

> d %>% filter(is_gametolog == 0) %>%
+ group_by(rho) %>% tally() %>% arrange(desc(rho))
# A tibble: 157 x 2
        rho     n
      <dbl> <int>
 1 0.292340  6753
 2 0.117260   169
 3 0.090423    37
 4 0.081629     3
 5 0.049919  3298
 6 0.029169   614
 7 0.027580    35
 8 0.027531     7
 9 0.027299   267
10 0.026506     4
# ... with 147 more rows
…
